LinkedIn Article
…
list_census_datasets()

## Querying CensusMapper API for available datasets...

## # A tibble: 26 x 2
##    dataset description                                                         
##    <chr>   <chr>                                                               
##  1 CA01    2001 Canada Census                                                  
##  2 CA06    2006 Canada Census                                                  
##  3 CA11    2011 Canada Census and NHS                                          
##  4 CA16    2016 Canada Census                                                  
##  5 CA01xSD 2001 Canada Census xtab - Structural type by Document type, via CMHC
##  6 CA06xSD 2006 Canada Census xtab - Structural type by Document type, via CMHC
##  7 CA11xSD 2011 Canada Census xtab - Structural type by Document type, via CMHC
##  8 CA16xSD 2016 Canada Census xtab - Structural type by Document type, via CMHC
##  9 TX2000  2000 Taxfiler data, via CMHC                                        
## 10 TX2001  2001 Taxfiler data, via CMHC                                        
## #  with 16 more rows

and to view available Census data vectors regions:

list_census_regions("CA16")

## Reading regions list from local cache.

## # A tibble: 5,504 x 8
##    region name              level     pop municipal_status CMA_UID CD_UID PR_UID
##    <chr>  <chr>             <chr>   <int> <chr>            <chr>   <chr>  <chr> 
##  1 01     Canada            C      3.52e7 <NA>             <NA>    <NA>   <NA>  
##  2 35     Ontario           PR     1.34e7 <NA>             <NA>    <NA>   <NA>  
##  3 24     Quebec            PR     8.16e6 <NA>             <NA>    <NA>   <NA>  
##  4 59     British Columbia  PR     4.65e6 <NA>             <NA>    <NA>   <NA>  
##  5 48     Alberta           PR     4.07e6 <NA>             <NA>    <NA>   <NA>  
##  6 46     Manitoba          PR     1.28e6 <NA>             <NA>    <NA>   <NA>  
##  7 47     Saskatchewan      PR     1.10e6 <NA>             <NA>    <NA>   <NA>  
##  8 12     Nova Scotia       PR     9.24e5 <NA>             <NA>    <NA>   <NA>  
##  9 13     New Brunswick     PR     7.47e5 <NA>             <NA>    <NA>   <NA>  
## 10 10     Newfoundland and PR     5.20e5 <NA>             <NA>    <NA>   <NA>  
## #  with 5,494 more rows

list_census_vectors("CA16")

## # A tibble: 6,623 x 7
##    vector  type   label       units parent_vector aggregation  details          
##    <chr>   <fct>  <chr>       <fct> <chr>         <chr>        <chr>            
##  1 v_CA16 Total  Population Numb <NA>          Additive     CA 2016 Census; 
##  2 v_CA16 Total  Population Numb <NA>          Additive     CA 2016 Census; 
##  3 v_CA16 Total  Population Numb <NA>          Average of  CA 2016 Census; 
##  4 v_CA16 Total  Total priv Numb <NA>          Additive     CA 2016 Census; 
##  5 v_CA16 Total  Private dw Numb v_CA16_404    Additive     CA 2016 Census; 
##  6 v_CA16 Total  Population Ratio <NA>          Average of  CA 2016 Census; 
##  7 v_CA16 Total  Land area  Numb <NA>          Additive     CA 2016 Census; 
##  8 v_CA16 Total  Total - Age Numb <NA>          Additive     CA 2016 Census; 
##  9 v_CA16 Male   Total - Age Numb <NA>          Additive     CA 2016 Census; 
## 10 v_CA16 Female Total - Age Numb <NA>          Additive     CA 2016 Census; 
## #  with 6,613 more rows
…
